
{"friendlyVersion": "VERSION",
 "versionDefName": "THECOMMANDLINE_RESOURCES",
 "media": [
       {
        "type": "font",
        "defName": "FONT_ANDALEMONO_14",
        "file": "fonts/AndaleMono_14.ttf"
        },
     
       {
	    "type":"png",
	    "defName":"IMAGE_THECMD_ICON",
	    "file":"images/thecmd_icon.png"
	    }
	  ] 
}
